<?xml version="1.0" encoding="utf-8"?>
<!-- Generator: Adobe Illustrator 24.0.1, SVG Export Plug-In . SVG Version: 6.00 Build 0)  -->
<svg version="1.1" id="Layer_1" xmlns="http://www.w3.org/2000/svg" xmlns:xlink="http://www.w3.org/1999/xlink" x="0px" y="0px"
	 viewBox="0 0 1659.2 540.1" style="enable-background:new 0 0 1659.2 540.1;" xml:space="preserve">
<style type="text/css">
	.st0{fill:url(#SVGID_1_);}
	.st1{fill:#1D2A3F;}
</style>
<linearGradient id="SVGID_1_" gradientUnits="userSpaceOnUse" x1="40.9961" y1="273.154" x2="490.8738" y2="273.154">
	<stop  offset="0" style="stop-color:#DE4C62"/>
	<stop  offset="1" style="stop-color:#FFA070"/>
</linearGradient>
<path class="st0" d="M459.3,125.1L297.5,31.6c-19.5-11.2-43.6-11.2-63.1,0L72.5,125.1C53.1,136.3,41,157.2,41,179.7v186.9
	c0,22.5,12.1,43.4,31.5,54.6l161.8,93.4c9.7,5.6,20.6,8.4,31.6,8.4c10.9,0,21.8-2.8,31.6-8.4l161.8-93.4
	c19.5-11.2,31.5-32.2,31.5-54.6V179.7C490.9,157.2,478.8,136.3,459.3,125.1z M280.6,485.5c-9.1,5.2-20.3,5.2-29.4,0L89.4,392
	c-9.1-5.2-14.7-14.9-14.7-25.4V179.7c0-10.5,5.6-20.2,14.7-25.4l161.8-93.4c4.5-2.6,9.6-3.9,14.7-3.9s10.2,1.3,14.7,3.9l161.8,93.4
	c9.1,5.2,14.7,14.9,14.7,25.4V360l-59.4-43.6c-15.3-11.2-35.7-12.2-52-2.5l-85.2,50.7l-64.8-38.1L343,235.2
	c10.3-6.4,17.7-17,18.7-29c1.1-14.2-5.7-27.3-17.7-34.5l-40.1-24c-24.1-14.5-54.2-14.4-78.3,0.1l-48,29
	c-22.7,13.7-36.6,38.3-36.6,64.9V308c0,15.7,8.3,30.3,21.9,38.3l82.2,48.4c9.5,5.6,21.3,5.6,30.7-0.1l80.7-48c8.4-5,19.1-4.5,27,1.3
	l58.8,43.2c0,0.4,0,0.5-0.1,1L280.6,485.5z M174.9,299.7v-57.9c0-14.6,7.8-28.4,20.3-36l48-29c6.7-4.1,14.3-6.1,21.8-6.1
	c7.5,0,15,2,21.7,6l40.1,24c0.9,0.6,1.4,1.4,1.4,2.5s-0.5,1.9-1.4,2.5L174.9,299.7z"/>
<g>
	<path class="st1" d="M848.3,151.3c-22.2-15.4-49.2-22.4-76.2-22.4h-12.2c-35.3,0-69.1,13.6-94.3,38.8
		c-25.2,25.2-38.8,59.5-39.3,95.3l-0.5,24.2c-0.7,53,28.4,102.8,80.9,124.6c16.9,7,35.2,9.5,53.5,9.5l10.8,0
		c34.3,0,68.6-10.1,94.8-32.3c8.6-7.6,16.1-15.6,22.2-25.2l-20.5-13.3c-10.6-6.9-24.9-6.6-34.3,1.9c-15.6,14-38.7,22.6-61.8,22.6
		h-14.1c-43.4,0-75.7-35.8-79.7-76.7h196.4c17.1,0,31-13.9,31-31v-15.4C902.5,211.8,882.3,174.9,848.3,151.3z M678.1,251.9
		c2.5-19.2,10.6-37.3,23.7-51.4c15.1-16.1,35.8-25.2,57.5-25.2h14.1c43.4,0,75.6,35.8,79.7,76.7H678.1z"/>
	<path class="st1" d="M1079.2,128.9h-11.1c-27.7,0-55,8.6-76.7,25.2c0-13.4-10.8-24.2-24.2-24.2h-29.8v290.5c28,0,52.7-22.6,53-50.6
		v-130c0.5-38.8,38.8-64.6,77.2-64.6h11.1c31.3,0,48.9,33.8,48.4,64.6V369c-0.2,28.3,21.6,51.4,49.9,51.4l1.5-180.6
		c0.5-29.2-9.1-57-28.2-78.7C1132.2,141,1106.4,128.9,1079.2,128.9z"/>
	<path class="st1" d="M1336.5,128.9c-22.2,0-42.4,9.6-58.5,24.2c0-12.8-10.4-23.2-23.2-23.2h-28.2v290.2
		c27.4-1.3,50.2-23.5,50.4-51.1c0.3-35.5-0.3-71.1,0-106.5c0.5-37.8,19.7-87.3,59-87.3h10.1c5,0,9.6,1,14.1,2.5l14.6-44.4
		c-9.1-3-18.7-4.5-28.2-4.5H1336.5z"/>
	<path class="st1" d="M1226.6,420.4v-0.3c-0.9,0-1.7,0.3-2.5,0.3H1226.6z"/>
	<path class="st1" d="M1591.8,158.7c-22.7-20.2-52.5-29.8-83.2-29.8h-11.1c-30.8,0-61,9.6-84.2,29.8c-10.6,9.6-19.2,21.2-25.2,33.8
		l24.2,11.1c10.7,4.9,23.8,3,31.7-5.8c12.4-13.8,32.1-22.5,53.1-22.5h11.1c33.8,0,66.1,22.7,65.6,57v24.2
		c-19.7-11.6-42.9-17.6-66.1-17.6H1496c-29.8,0-59.5,7.6-83.7,25.2c-20.2,14.6-34.8,36.3-34.8,61v10.6c0,24.7,14.1,46.4,33.8,61
		c23.7,17.6,53.5,24.7,83.2,24.7h11.6c23.2,0,46.4-5.6,66.1-17.2c0,17.1,13.9,17.2,31,17.2h21.5V232.3
		C1625.1,204,1613,177.3,1591.8,158.7z M1572.7,335.7c-0.5,27.7-39.3,39.3-66.6,39.3H1495c-26.7,0-66.1-11.6-66.1-39.3l0.5-10.6
		c0-28.2,38.8-39.8,66.1-39.8h11.6c27.2,0,66.1,11.6,66.1,39.8C1573.2,328.6,1572.7,332.1,1572.7,335.7z"/>
</g>
</svg>
